﻿Order Id,Product ID,Product Name,First Name,Last Name,ADD,ADD2,CITY,PROV,PC,"City, Prov,PC",Address Flag,Consumer ID,Email,COUNTRY,Valid,Correct_Text,ListOrder,BAGBUN,DMC,OEL,BUN,BUNTYPE,BAG,PALLET,Consumer Status,Order Status
455609,7173,BRILLIANT BRUNETTE® MULTI-TONE REVEALING,HELEN,COOK,605-11910 80 AVE,,DELTA,BC,V4C 8E3,16,CVV,3219951,HELENCOOK3030@HOTMAIL.CA,CA,V,,,,,,,,,,ACTIVE,UNSHIPPED
456400,7173,BRILLIANT BRUNETTE® MULTI-TONE REVEALING,RAPHAELLE,CARON,234 RUE CERTON,,QUEBEC,QC,G1B 3N8,17,V,3220262,PRIO12_RI21@HOTMAIL.COM,CA,V,,,,,,,,,,ACTIVE,UNSHIPPED
451531,7173,BRILLIANT BRUNETTE® MULTI-TONE REVEALING,RHEAUME,SOPHIE,333 AV SANTERRE,,QUEBEC,QC,G1M 1Z5,17,V,3217576,SOPHIE.PAPILLON.11@HOTMAIL.COM,CA,V,,,,,,,,,,ACTIVE,UNSHIPPED
457305,7173,BRILLIANT BRUNETTE® MULTI-TONE REVEALING,SHANNON,OICKLE,PO BOX 43,,LAHAVE,NS,B0R 1C0,17,V,3205229,SHANNON.OICKLE@BELLALIANT.NET,CA,V,,,,,,,,,,ACTIVE,UNSHIPPED
452649,7173,BRILLIANT BRUNETTE® MULTI-TONE REVEALING,MELANIE,COLLIN,679 6E AV,,VERDUN,QC,H4G 3A3,17,CVV,3119194,BEAUXYEUX3803@GMAIL.COM,CA,V,,,,,,,,,,ACTIVE,UNSHIPPED
457295,7173,BRILLIANT BRUNETTE® MULTI-TONE REVEALING,HELEN,WRIGHT,3-346 ELGIN CRT,,OSHAWA,ON,L1J 2P4,17,V,3083832,KENANDHELEN1964@GMAIL.COM,CA,V,,,,,,,,,,ACTIVE,UNSHIPPED
454193,7173,BRILLIANT BRUNETTE® MULTI-TONE REVEALING,BRODIE,BROCKBANK,4-4 RACHAEL RD,,ORILLIA,ON,L3V 7Y2,18,V,3219352,BRODIZALBBANK@GMAIL.COM,CA,V,,,,,,,,,,ACTIVE,UNSHIPPED
451086,7173,BRILLIANT BRUNETTE® MULTI-TONE REVEALING,LAURIE MAUDE MARIE,PRUNEAU,205A RUE AMBROISE-DEARDEN,,WINDSOR,QC,J1S 1H5,18,V,3217325,LAURIEMAUDEMARIE@GMAIL.COM,CA,V,,,,,,,,,,ACTIVE,UNSHIPPED
451081,7173,BRILLIANT BRUNETTE® MULTI-TONE REVEALING,LAURIE,PRUNEAU,205A RUE AMBROISE-DEARDEN,,WINDSOR,QC,J1S 1H5,18,V,3217312,PANDYPANDA95@GMAIL.COM,CA,V,,,,,,,,,,ACTIVE,UNSHIPPED
418618,7173,BRILLIANT BRUNETTE® MULTI-TONE REVEALING,PENNY,KASPER,1-32 ORCHARD HEIGHTS DR,,CHATHAM,ON,N7M 3G6,18,SVV,3206625,PENNYKASPER@GMAIL.COM,CA,V,,,,,,,,,,ACTIVE,UNSHIPPED
456981,7173,BRILLIANT BRUNETTE® MULTI-TONE REVEALING,ASHLEY,WONG,5655 BROADWAY,,BURNABY,BC,V5B 2X8,18,V,3153572,ASHLEY_W6@HOTMAIL.COM,CA,V,,,,,,,,,,ACTIVE,UNSHIPPED
457336,7173,BRILLIANT BRUNETTE® MULTI-TONE REVEALING,KATIA,ROBICHAUD,11-160 JOYCE AVE,,MONCTON,NB,E1A 0M9,18,V,3094817,KATIAROBICHAUD2004@HOTMAIL.COM,CA,V,,,,,,,,,,ACTIVE,UNSHIPPED
457338,7173,BRILLIANT BRUNETTE® MULTI-TONE REVEALING,HEATHER,MCCLANAHAN,3-1011 PARK AVE W,,CHATHAM,ON,N7M 5J5,18,CVV,3014932,HMCCLANAHAN@HOTMAIL.COM,CA,V,Route Service identifier,,,,,,,,,ACTIVE,UNSHIPPED
457443,7173,BRILLIANT BRUNETTE® MULTI-TONE REVEALING,TAYISIYA,SHOLOKH,20 WILLIAMSON DR,,BRANDON,MB,R7B 3K8,18,V,3013789,TAYASHOLOKH@YAHOO.COM,CA,V,,,,,,,,,,ACTIVE,UNSHIPPED
458517,7173,BRILLIANT BRUNETTE® MULTI-TONE REVEALING,JUSTINE,JUSTINE,1-1490 BOUL PROVENCHER,,BROSSARD,QC,J4W 1Z2,19,V,3221282,MESCOUPONS98@OUTLOOK.FR,CA,V,,,,,,,,,,ACTIVE,UNSHIPPED
456111,7173,BRILLIANT BRUNETTE® MULTI-TONE REVEALING,MONA,MESA,1114 GARFIELD ST N,,WINNIPEG,MB,R3E 2P1,19,V,3220163,1MOJO@MTS.NET,CA,V,,,,,,,,,,ACTIVE,UNSHIPPED
455358,7173,BRILLIANT BRUNETTE® MULTI-TONE REVEALING,PASCAL,BEDARD,266 DES PAYSANS AVE,,GATINEAU,QC,J9J 1T5,19,V,3219925,PASCALQUESNEL92@GIMAIL.COM,CA,V,,,,,,,,,,ACTIVE,UNSHIPPED
452152,7173,BRILLIANT BRUNETTE® MULTI-TONE REVEALING,JULIANNE,SIMON,7748 37 AVE NW,,EDMONTON,AB,T6K 3E3,19,V,3218018,JULIANNE2278@GMAIL.COM,CA,V,,,,,,,,,,ACTIVE,UNSHIPPED
451085,7173,BRILLIANT BRUNETTE® MULTI-TONE REVEALING,MAUDE,DAOUST-LEDUX,5-2330 AV GONTHIER,,MONTREAL,QC,H1L 3V6,19,V,3217323,MAUDE55@HOTMAIL.COM,CA,V,,,,,,,,,,ACTIVE,UNSHIPPED
457317,7173,BRILLIANT BRUNETTE® MULTI-TONE REVEALING,MARILOU,BERGEVIN,4613 49 ST,,RED DEER,AB,T4N 1T4,19,V,3145496,MARILOUBERGEVIN@GMAIL.COM,CA,V,,,,,,,,,,ACTIVE,UNSHIPPED
457583,7173,BRILLIANT BRUNETTE® MULTI-TONE REVEALING,CHRISTY,TRAVIS,1913 HAMMOND PL NW,,EDMONTON,AB,T6M 0K3,19,V,3112070,CHRISTYTINA81@YAHOO.CA,CA,V,,,,,,,,,,ACTIVE,UNSHIPPED
457538,7173,BRILLIANT BRUNETTE® MULTI-TONE REVEALING,SHARON,EDEN,193 LOTTRIDGE ST,,HAMILTON,ON,L8L 6V6,19,V,3105162,SHARONATOR3@HOTMAIL.COM,CA,V,,,,,,,,,,ACTIVE,UNSHIPPED
459300,7173,BRILLIANT BRUNETTE® MULTI-TONE REVEALING,KUMAIN,MABUTI,114-4893 CLARENDON ST,,VANCOUVER,BC,V5R 3J3,20,V,3221769,KAINLANG@MSN.COM,CA,V,,,,,,,,,,ACTIVE,UNSHIPPED
458182,7173,BRILLIANT BRUNETTE® MULTI-TONE REVEALING,MAKULI,NGIRAS,114-4893 CLARENDON ST,,VANCOUVER,BC,V5R 3J3,20,V,3221088,MANGIRAS@YAHOO.COM,CA,V,,,,,,,,,,ACTIVE,UNSHIPPED
457435,7173,BRILLIANT BRUNETTE® MULTI-TONE REVEALING,MAONG,AGAWA,114-4893 CLARENDON ST,,VANCOUVER,BC,V5R 3J3,20,V,3220632,RHDUJN@MSN.COM,CA,V,,,,,,,,,,ACTIVE,UNSHIPPED
454272,7173,BRILLIANT BRUNETTE® MULTI-TONE REVEALING,ANOUSHKA,SEEBAH,1108-49 KINGS WHARF PL,,DARTMOUTH,NS,B2Y 0C7,20,V,3219747,ANOUSHKA.SEEBAH@ICLOUD.COM,CA,V,,,,,,,,,,ACTIVE,UNSHIPPED
453376,7173,BRILLIANT BRUNETTE® MULTI-TONE REVEALING,FARHIA,TAHLIL,79-79 SCARLETTWOOD CRT,,ETOBICOKE,ON,M9P 1T1,20,V,3218981,5597TYT@GMAIL.COM,CA,V,,,,,,,,,,ACTIVE,UNSHIPPED
458955,7173,BRILLIANT BRUNETTE® MULTI-TONE REVEALING,TRENT,FILLION,70 GREY ST,,BRANTFORD,ON,N3T 2T2,20,V,3218177,TRENTFILLION94@GMAIL.COM,CA,V,,,,,,,,,,ACTIVE,UNSHIPPED
433314,7173,BRILLIANT BRUNETTE® MULTI-TONE REVEALING,WENDY,SLOBOZIAN,2-1256 KING ST E,,CAMBRIDGE,ON,N3H 3P8,20,V,3209201,WENDYSLOBOZIAN@HOTMAIL.COM,CA,V,,,,,,,,,,ACTIVE,UNSHIPPED
457485,7173,BRILLIANT BRUNETTE® MULTI-TONE REVEALING,BARBARA,SIMON,1 CROSS'S LANE,,DEER LAKE,NL,A8A 1G2,20,V,3117724,NURSINGNEWF@MSN.COM,CA,V,,,,,,,,,,ACTIVE,UNSHIPPED
457715,7173,BRILLIANT BRUNETTE® MULTI-TONE REVEALING,VIOLA,BISHOP,188 MAIN ROAD,,ISLINGTON,NL,A0B 2E0,20,V,3088213,VIOLABBISHOP@HOTMAIL.COM,CA,V,Complete Route Service Info,,,,,,,,,ACTIVE,UNSHIPPED
457291,7173,BRILLIANT BRUNETTE® MULTI-TONE REVEALING,TRACY,ANDERSON,28 KING ST S,PO BOX 1489,RIDGETOWN,ON,N0P 2C0,20,SVV,3014613,TRACYANDERSON003@MSN.COM,CA,V,Delivery Inst Type,,,,,,,,,ACTIVE,UNSHIPPED
457386,7173,BRILLIANT BRUNETTE® MULTI-TONE REVEALING,WANDA,TRACEY,187 BONNECHERE ST W,PO BOX 265,EGANVILLE,ON,K0J 1T0,20,SVV,3009475,WANDATRACEY01@HOTMAIL.COM,CA,V,Delivery Inst Type,,,,,,,,,ACTIVE,UNSHIPPED
458138,7173,BRILLIANT BRUNETTE® MULTI-TONE REVEALING,NATHALIE,COMTOIS,213 RITA ST,,CHELMSFORD,ON,P0M 1L0,21,V,3221056,COMTOISNATHALIE@GMAIL.COM,CA,V,,,,,,,,,,ACTIVE,UNSHIPPED
454129,7173,BRILLIANT BRUNETTE® MULTI-TONE REVEALING,SARAH,GAULIN,13-1100 RUE PAPINEAU,,SHERBROOKE,QC,J1E 3B2,21,V,3219619,CHARLOTTECUTIEBABY@HOTMAIL.COM,CA,V,,,,,,,,,,ACTIVE,UNSHIPPED
453885,7173,BRILLIANT BRUNETTE® MULTI-TONE REVEALING,ALYSHA,BABLITZ,E-508 MAIN ST,,WHITEHORSE,YT,Y1A 2B9,21,V,3219407,ALYSHA93B@GMAIL.COM,CA,V,,,,,,,,,,ACTIVE,UNSHIPPED
457984,7173,BRILLIANT BRUNETTE® MULTI-TONE REVEALING,LISA,SPYGLASS,PO BOX 1771,,BATTLEFORD,SK,S0M 0E0,21,V,3202833,LISAFAYESPYGLASS@GMAIL.COM,CA,V,,,,,,,,,,ACTIVE,UNSHIPPED
458569,7173,BRILLIANT BRUNETTE® MULTI-TONE REVEALING,JESSICA,IMBEAULT,098403 4TH LINE SW,,MELANCTHON,ON,L9V 2C4,21,V,3127174,JDCGCHILDS@HOTMAIL.COM,CA,V,,,,,,,,,,ACTIVE,UNSHIPPED
458476,7173,BRILLIANT BRUNETTE® MULTI-TONE REVEALING,EDISON,KHUONG,136-2170 BROMSGROVE RD,,MISSISSAUGA,ON,L5J 4J2,22,V,3221249,EDISON8013@GMAIL.COM,CA,V,,,,,,,,,,ACTIVE,UNSHIPPED
443393,7173,BRILLIANT BRUNETTE® MULTI-TONE REVEALING,SHAUNTAE,PRETTIE,54 BEAR ROAD PO BOX 241,,SCANTERBURY,MB,R0E 1W0,22,CVV,3212346,CLAYTONPRETTE@GMAIL.COM,CA,V,Complete Route Service Info,,,,,,,,,ACTIVE,UNSHIPPED
452791,7173,BRILLIANT BRUNETTE® MULTI-TONE REVEALING,ROB,MICKS,22 MINNIE ST,,WALLACEBURG,ON,N8A 1S4,22,V,3159849,ROBMICKSIE@GMAIL.COM,CA,V,,,,,,,,,,ACTIVE,UNSHIPPED
458914,7173,BRILLIANT BRUNETTE® MULTI-TONE REVEALING,MAUDE,ROUSSEAU,720 RANG SAINT-JOSEPH,,STE-MONIQUE,QC,J0G 1N0,22,V,3152112,MAROUSSEPUB@GMAIL.COM,CA,V,,,,,,,,,,ACTIVE,UNSHIPPED
450317,7173,BRILLIANT BRUNETTE® MULTI-TONE REVEALING,SASHA,MAHARAJ,112-5055 HEATHERLEIGH AVE,,MISSISSAUGA,ON,L5V 2R8,22,SVV,3135977,DRWOLF.SASHA@ROGERS.COM,CA,V,,,,,,,,,,ACTIVE,UNSHIPPED
451521,7173,BRILLIANT BRUNETTE® MULTI-TONE REVEALING,LINE,THERIAULT,425 CH TILLEY ROAD,,TILLEY ROAD,NB,E8M 1R7,22,V,3127204,LINESTEVE2015@HOTMAIL.COM,CA,V,,,,,,,,,,ACTIVE,UNSHIPPED
457323,7173,BRILLIANT BRUNETTE® MULTI-TONE REVEALING,JOANIE,SMIDS,12490 SPINTER LINE,,THAMESVILLE,ON,N0P 2K0,22,V,3111265,MRSV518@COMCAST.NET,CA,V,"Street name,Route Service identifier",,,,,,,,,ACTIVE,UNSHIPPED
453866,7173,BRILLIANT BRUNETTE® MULTI-TONE REVEALING,KAREN,FERGUSON,552 RUE POINTE A TOM,,POINTE-A-TOM,NB,SHEER BLONDE® HIGHLIGHT ACTIVATING®,51,V,3218998,BOUBOU261@HOTMAIL.COM,CA,V,,,,,,,,,,ACTIVE,UNSHIPPED
450620,7173,BRILLIANT BRUNETTE® MULTI-TONE REVEALING,DEBRA,ALDRICH,3390 RUE ROCHELEAU,,SAINT-HUBERT,QC,J3Y 4T7,23,V,3214031,DJAPURPLE@OUTLOOK.COM,CA,V,,,,,,,,,,ACTIVE,UNSHIPPED
417794,7173,BRILLIANT BRUNETTE® MULTI-TONE REVEALING,PAMELA,DEMERS,407-2620 JANE ST,,PT-COQUITLAM,BC,V3C 6J3,23,U,3206133,PAMELADEMERS16@GMAIL.COM,CA,V,,,,,,,,,,ACTIVE,UNSHIPPED
451752,7173,BRILLIANT BRUNETTE® MULTI-TONE REVEALING,KIM,CARBONNEAU,2665N RUE NOTRE-DAME,,ST-HYACINTHE,QC,J2S 2R5,23,V,3153625,PIKI_LOVE16@HOTMAIL.COM,CA,V,,,,,,,,,,ACTIVE,UNSHIPPED
452360,7173,BRILLIANT BRUNETTE® MULTI-TONE REVEALING,STÉPHANIE,TREMBLAY,7037 RUE DES TOURNESOLS,,SAINT-HUBERT,QC,J3Y 8S2,23,V,3141935,STEPH.SHERBY@GMAIL.COM,CA,V,,,,,,,,,,ACTIVE,UNSHIPPED
457655,7173,BRILLIANT BRUNETTE® MULTI-TONE REVEALING,BRIAN,GIBBS,39 RIDEAU AVE S,,SMITHS FALLS,ON,K7A 2V7,23,V,3101169,GIBBSBRIAN@HOTMAIL.COM,CA,V,,,,,,,,,,ACTIVE,UNSHIPPED
458127,7173,BRILLIANT BRUNETTE® MULTI-TONE REVEALING,CYNTHIA,GRAHAM,1635 9 AVE NE,,MEDICINE HAT,AB,T1A 6G1,23,V,3010207,MOMOF3SUPERGIRLS@YAHOO.CA,CA,V,,,,,,,,,,ACTIVE,UNSHIPPED
454053,7173,BRILLIANT BRUNETTE® MULTI-TONE REVEALING,JENNIFER,LABRECQUE,23 RUE PURVIS,,SALAB-DE-VALL,QC,J6S 2B9,24,V,3219562,PEANUT2PUCES@HOTMAIL.COM,CA,V,,,,,,,,,,ACTIVE,UNSHIPPED
453952,7173,BRILLIANT BRUNETTE® MULTI-TONE REVEALING,THOMMY,BLAIS,1619 RUE PRINCIPALE,,SAINTE-URSULE,QC,J0K 3M0,24,V,3219470,MIISSQC@GMAIL.COM,CA,V,,,,,,,,,,ACTIVE,UNSHIPPED
450764,7173,BRILLIANT BRUNETTE® MULTI-TONE REVEALING,EMÉLIE,COUTURE,817 RUE SAINT-GEORGES,,DRUMMONDVILLE,QC,J2C 4J1,24,V,3136437,EMYCOUTURE-VIOLA@HOTMAIL.COM,CA,V,,,,,,,,,,ACTIVE,UNSHIPPED
450218,7173,BRILLIANT BRUNETTE® MULTI-TONE REVEALING,JULIE,BEDARD,201-12345 AV LAPIERRE,,MONTREAL-NORD,QC,H1G 3S3,24,V,3023673,JULIE.BEDARD86@GMAIL.COM,CA,V,,,,,,,,,,ACTIVE,UNSHIPPED
458793,7173,BRILLIANT BRUNETTE® MULTI-TONE REVEALING,JULIETTE,ST-ARNAUD,42 CH DE LA PAROI,,STONEHAM-ET-TEWKESBURY,QC,G3C 0R7,33,V,3214748,STAJ6679@COLLEGEFDL.NET,CA,V,,,,,,,,,,ACTIVE,UNSHIPPED
