﻿Order Id,Product ID,Product Name,First Name,Last Name,ADD,ADD2,CITY,PROV,PC,"City,Pro,Pc",Address Flag,Consumer ID,Email,COUNTRY,Valid,Correct_Text,ListOrder,BAGBUN,DMC,OEL,BUN,BUNTYPE,BAG,PALLET,Consumer Status,Order Status
453455,7166,FRIZZ EASE® FOREVER SMOOTH,ALEXA,ODGERS,PO BOX 146,,VILNA,AB,T0A 3L0,16,V,3219065,ALEXACALLIOU69@GMAIL.COM,CA,V,,,,,,,,,,ACTIVE,UNSHIPPED
451496,7166,FRIZZ EASE® FOREVER SMOOTH,LARISSA,HALL,59-851 63 ST,,EDSON,AB,T7E 0A2,16,V,3217542,MANITOBABABYGIRL2@HOTMAIL.COM,CA,V,,,,,,,,,,ACTIVE,UNSHIPPED
452263,7166,FRIZZ EASE® FOREVER SMOOTH,GABRIELLA,SMERAGLIA,2899 RUE D'AIGREMONT,,LAVAL,QC,H7E 5K4,16,V,3152256,GSMERAGLIA@HOTMAIL.COM,CA,V,,,,,,,,,,ACTIVE,UNSHIPPED
458137,7166,FRIZZ EASE® FOREVER SMOOTH,KELLY,LEBLANC,110-1105 AV BELVEDERE,,QUEBEC,QC,G1S 3G5,17,V,3221055,LEBLANCKELLY@HOTMAIL.CA,CA,V,,,,,,,,,,ACTIVE,UNSHIPPED
456645,7166,FRIZZ EASE® FOREVER SMOOTH,JULIE,MARCHIONE,15 WALLACE DR,,BARRIE,ON,L4N 7E2,17,V,3220307,JULIE_MARCHIONE@LIVE.CA,CA,V,,,,,,,,,,ACTIVE,UNSHIPPED
452617,7166,FRIZZ EASE® FOREVER SMOOTH,JENNIFER,LAROSE,641 RUE ARGYLE,,VERDUN,QC,H4H 1V2,17,V,3218377,DJEN_1994@HOTMAIL.COM,CA,V,,,,,,,,,,ACTIVE,UNSHIPPED
451908,7166,FRIZZ EASE® FOREVER SMOOTH,CAROLINE,BERNARD,56A GRITTON AVE,,SYDNEY,NS,B1S 2X9,17,SVV,3217582,GUSTIOMI01251989@GMAIL.COM,CA,C,Address Reformatted,,,,,,,,,ACTIVE,UNSHIPPED
458143,7166,FRIZZ EASE® FOREVER SMOOTH,LILLIAN,RILEY,254 TRUDEAU DR,,SARNIA,ON,N7S 4K7,17,V,3120898,CAROL_KING80@YAHOO.COM,CA,V,,,,,,,,,,ACTIVE,UNSHIPPED
457287,7166,FRIZZ EASE® FOREVER SMOOTH,SALWA,AKIKI,F-163 CRESTWAY DR,,NEPEAN,ON,K2G 7C8,17,V,3087632,SALAKIKI@HOTMAIL.COM,CA,V,,,,,,,,,,ACTIVE,UNSHIPPED
457449,7166,FRIZZ EASE® FOREVER SMOOTH,COURTNEY,SERSON,51 PINEGLEN CRES,,NEPEAN,ON,K2G 0G7,17,CVV,3085427,LYNNS382017@OUTLOOK.COM,CA,V,,,,,,,,,,ACTIVE,UNSHIPPED
459289,7166,FRIZZ EASE® FOREVER SMOOTH,ISABELLE,BRUNETTE,1238 RUE DES PELICANS,,PREVOST,QC,J0R 1T0,18,V,3221759,G.DELORME@ROBERTLEGARE.COM,CA,V,,,,,,,,,,ACTIVE,UNSHIPPED
453939,7166,FRIZZ EASE® FOREVER SMOOTH,TINA,DELAND,2202 DESCARTES ST,,ORLEANS,ON,K4A 0W4,18,V,3219173,TINA.1985@LIVE.CA,CA,V,,,,,,,,,,ACTIVE,UNSHIPPED
450372,7166,FRIZZ EASE® FOREVER SMOOTH,NADIA,MALTAIS,1247 RUE HERVE-TREMBLAY,,LA BAIE,QC,G7B 3S8,18,V,3216867,MALTAIS1986@OUTLOOK.COM,CA,V,,,,,,,,,,ACTIVE,UNSHIPPED
450920,7166,FRIZZ EASE® FOREVER SMOOTH,KEARA,LYN,68-10200 MENARD ST,,WINDSOR,ON,N8P 1H2,18,V,3213299,KEARA0915@HOTMAIL.COM,CA,V,,,,,,,,,,ACTIVE,UNSHIPPED
417822,7166,FRIZZ EASE® FOREVER SMOOTH,ELENA,GREEN,26 OWLSHEAD RD,,MUNSTER,ON,K0A 3P0,18,V,3156260,JASTISHE@GMAIL.COM,CA,C,"Street type,Route Service identifier",,,,,,,,,ACTIVE,UNSHIPPED
459165,7166,FRIZZ EASE® FOREVER SMOOTH,LEO,NOR,224,404-165 GRANGE AVE,TORONTO,ON,M5T 2V5,18,V,3092468,BEHIRA00@HOTMAIL.COM,CA,V,,,,,,,,,,ACTIVE,UNSHIPPED
457289,7166,FRIZZ EASE® FOREVER SMOOTH,SHANNON,PARRENT,11-1292 LAWRENCE AVE,,KELOWNA,BC,V1Y 6M4,18,V,3087794,SHANNONPARRENT@GMAIL.COM,CA,V,,,,,,,,,,ACTIVE,UNSHIPPED
455358,7166,FRIZZ EASE® FOREVER SMOOTH,PASCAL,BEDARD,266 DES PAYSANS AVE,,GATINEAU,QC,J9J 1T5,19,V,3219925,PASCALQUESNEL92@GIMAIL.COM,CA,V,,,,,,,,,,ACTIVE,UNSHIPPED
454623,7166,FRIZZ EASE® FOREVER SMOOTH,SHANDI,STAATS,494 CATHARINE ST N,,HAMILTON,ON,L8L 4T9,19,V,3219815,SHANDI_1987@HOTMAIL.COM,CA,V,,,,,,,,,,ACTIVE,UNSHIPPED
454105,7166,FRIZZ EASE® FOREVER SMOOTH,JESSICA,ODONNELL,C-304 MAIN ST,,DOAKTOWN,NB,E9C 1E2,19,V,3219607,JESSICA_OD98@HOTMAIL.COM,CA,V,,,,,,,,,,ACTIVE,UNSHIPPED
453792,7166,FRIZZ EASE® FOREVER SMOOTH,KELSEA,HERNANDEZ,1-6155 BOUL CHEVRIER,,BROSSARD,QC,J4Z 0C6,19,V,3219293,KELSEAHERNANDEZ@HOTMAIL.COM,CA,V,,,,,,,,,,ACTIVE,UNSHIPPED
451291,7166,FRIZZ EASE® FOREVER SMOOTH,KIM,CARSON,1350-PO BOX,,REDWATER,AB,T0A 2W0,19,V,3217443,KCARSON801@GMAIL.COM,CA,V,Complete Route Service Info,,,,,,,,,ACTIVE,UNSHIPPED
459049,7166,FRIZZ EASE® FOREVER SMOOTH,MELANIE,DUGUAY,62 RUE DE L'EGLISE,,INKERMAN,NB,E8P 1A4,19,CVV,3205714,MELANIEDUGUAY67@GMAIL.COM,CA,V,,,,,,,,,,ACTIVE,UNSHIPPED
457271,7166,FRIZZ EASE® FOREVER SMOOTH,PRIMELYN,GUARIN,1124 TIMBER VIEW,,VICTORIA,BC,V9B 0B5,19,V,3169674,ISLANDBABY9495@HOTMAIL.COM,CA,V,,,,,,,,,,ACTIVE,UNSHIPPED
457296,7166,FRIZZ EASE® FOREVER SMOOTH,CATHERINE,COMERFORD,145 NEWLANDS AVE,,HAMILTON,ON,L8H 2T8,19,V,3105483,STEELYCITYLADY@YAHOO.COM,CA,V,,,,,,,,,,ACTIVE,UNSHIPPED
452150,7166,FRIZZ EASE® FOREVER SMOOTH,KATRINA,TREMBLAY,3989 RUE CLARK,,MONTREAL,QC,H2W 1W8,19,V,3102000,Z33@NO-LOG.ORG,CA,V,,,,,,,,,,ACTIVE,UNSHIPPED
453817,7166,FRIZZ EASE® FOREVER SMOOTH,MYRIAM,SAVARD,478 BOUL SAINT-RENE O,,GATINEAU,QC,J8P 2W4,19,V,3097825,MYRIAM-SAVARD@HOTMAIL.COM,CA,V,,,,,,,,,,ACTIVE,UNSHIPPED
457774,7166,FRIZZ EASE® FOREVER SMOOTH,UYEN,TANG,35 WHITEPOPPY DR,,BRAMPTON,ON,L7A 0L9,19,V,3087739,TANGLEUYEN2000@YAHOO.COM.AU,CA,V,,,,,,,,,,ACTIVE,UNSHIPPED
457670,7166,FRIZZ EASE® FOREVER SMOOTH,CHI CHING,TAM,1840 RUE THERRIEN,,BROSSARD,QC,J4W 2J7,19,V,3085850,JEYF4@YAHOO.COM,CA,V,,,,,,,,,,ACTIVE,UNSHIPPED
457455,7166,FRIZZ EASE® FOREVER SMOOTH,JOSEPHINE,MADDEN,2536 2ND CONC,,PRESCOTT,ON,K0E 1T0,19,CVV,3085444,LIL_SHYCHIC@YAHOO.COM,CA,V,Route Service identifier,,,,,,,,,ACTIVE,UNSHIPPED
457483,7166,FRIZZ EASE® FOREVER SMOOTH,GLENDA,WESTOVER,C5-175 LIMERIDGE RD W,,HAMILTON,ON,L9C 2V4,19,V,3027278,G75_PARSONS@HOTMAIL.COM,CA,V,,,,,,,,,,ACTIVE,UNSHIPPED
453960,7166,FRIZZ EASE® FOREVER SMOOTH,TAMARA   RENE,BURBANK,12 OLIVER ST,,HAMILTON,ON,L8L 4K8,19,V,3017977,TAMARARENE95@GMAIL.COM,CA,V,,,,,,,,,,ACTIVE,UNSHIPPED
457277,7166,FRIZZ EASE® FOREVER SMOOTH,JODIE,MALTBY,6-2780 SPENCER RD,,LANGFORD,BC,V9B 4C9,19,V,3016568,GRACIEONE@HOTMAIL.COM,CA,V,,,,,,,,,,ACTIVE,UNSHIPPED
458094,7166,FRIZZ EASE® FOREVER SMOOTH,TRICIA,TREMBLAY,382 RUE SAINT-JEAN-BAPTISTE,,COATICOOK,QC,J1A 2J7,20,V,3221014,TRITRI_11@HOTMAIL.COM,CA,V,,,,,,,,,,ACTIVE,UNSHIPPED
456313,7166,FRIZZ EASE® FOREVER SMOOTH,MEGAN,NEWMAN,4 GOODYEARS LANE,,DEER LAKE,NL,A8A 1L7,20,V,3220238,MEGANWEBBX@GMAIL.COM,CA,V,,,,,,,,,,ACTIVE,UNSHIPPED
455202,7166,FRIZZ EASE® FOREVER SMOOTH,HANNAH,WATSON,480 WOODS AVE,,COURTENAY,BC,V9N 3Z1,20,V,3219888,HANNAHLYNNWATSON@GMAIL.COM,CA,V,,,,,,,,,,ACTIVE,UNSHIPPED
453340,7166,FRIZZ EASE® FOREVER SMOOTH,ELAINE,LAFERRIERE,3767 RUE DE LA BRETAGNE,,JONQUIERE,QC,G7X 8Y4,20,V,3218982,ELAINE.LAFERRIERE@HOTMAIL.COM,CA,V,,,,,,,,,,ACTIVE,UNSHIPPED
452773,7166,FRIZZ EASE® FOREVER SMOOTH,TESS,CORBETT,1601-1331 GEORGIA ST W,,VANCOUVER,BC,V6E 4P1,20,V,3218518,TESS_242@HOTMAIL.COM,CA,V,,,,,,,,,,ACTIVE,UNSHIPPED
451790,7166,FRIZZ EASE® FOREVER SMOOTH,CHELSEA,PONGRACZ,PO BOX 454,,STOUGHTON,SK,S0G 4T0,20,V,3217738,FIRSTINCOMMAND@ICLOUD.COM,CA,V,,,,,,,,,,ACTIVE,UNSHIPPED
451587,7166,FRIZZ EASE® FOREVER SMOOTH,SYLVIE,DE CHAMPLAIN,2432 RUE CANTIN,,LONGUEUIL,QC,J4M 2V1,20,V,3217488,SYLVIEBDC@GMAIL.COM,CA,V,,,,,,,,,,ACTIVE,UNSHIPPED
457355,7166,FRIZZ EASE® FOREVER SMOOTH,LAURA,HAAS,44 NANCROFT CRES,,CAMBRIDGE,ON,N1T 2H1,20,V,3164834,RAYEMARTINE@YAHOO.COM,CA,V,,,,,,,,,,ACTIVE,UNSHIPPED
457300,7166,FRIZZ EASE® FOREVER SMOOTH,ANDREA,MELLAND,554 ATHABASCA ST W,,MOOSE JAW,SK,S6H 2C6,20,V,3086111,SAINT_RED2005@YAHOO.CA,CA,V,,,,,,,,,,ACTIVE,UNSHIPPED
457535,7166,FRIZZ EASE® FOREVER SMOOTH,AUDREY,BELLAVANCE,145 RUE BERNIER,,SHERBROOKE,QC,J1G 4P2,21,V,3220669,3300050@CSCOEUR.CA,CA,V,,,,,,,,,,ACTIVE,UNSHIPPED
451401,7166,FRIZZ EASE® FOREVER SMOOTH,REBECCA,KLUKE,591 CH PICANOC,,OTTER LAKE,QC,J0X 2P0,21,V,3217498,REBECCA.KLUKE123@GMAIL.COM,CA,V,,,,,,,,,,ACTIVE,UNSHIPPED
417833,7166,FRIZZ EASE® FOREVER SMOOTH,NAILA,ALBINA,1719-200 GATEWAY BLVD,,NORTH YORK,ON,M3C 1B5,21,U,3206153,NAILA.ALBINA14@GMAIL.COM,CA,V,,,,,,,,,,ACTIVE,UNSHIPPED
457438,7166,FRIZZ EASE® FOREVER SMOOTH,LINDA,BEAL,427 SEA ST,,SAINT JOHN,NB,E2M 2N7,21,V,3118525,LINDABEAL@HOTMAIL.COM,CA,V,,,,,,,,,,ACTIVE,UNSHIPPED
457523,7166,FRIZZ EASE® FOREVER SMOOTH,LISE,POMERLEAU,1 CAR TREPANIER,,BOISBRIAND,QC,J7G 1N5,21,V,3086853,LISE.POM2@HOTMAIL.COM,CA,V,,,,,,,,,,ACTIVE,UNSHIPPED
457395,7166,FRIZZ EASE® FOREVER SMOOTH,AMANDA,PARSONS,POBOX420,,SHEARSTOWN,NL,A0A 3V0,21,V,3083171,APARSONS89@HOTMAIL.COM,CA,V,Complete Route Service Info,,,,,,,,,ACTIVE,UNSHIPPED
457541,7166,FRIZZ EASE® FOREVER SMOOTH,JENNIFER,PETERS,447 MADDIX CRES,,SUMMERSIDE,PE,C1N 5H5,21,V,3082971,JENNIFERPETERS791@HOTMAIL.COM,CA,V,,,,,,,,,,ACTIVE,UNSHIPPED
457753,7166,FRIZZ EASE® FOREVER SMOOTH,IAM,CHIP,4 PRIDE ROCK CRT,,SAINT JOHN,NB,E2H 2W2,21,V,3082551,BALLDERDASH@GMAIL.COM,CA,V,,,,,,,,,,ACTIVE,UNSHIPPED
453379,7166,FRIZZ EASE® FOREVER SMOOTH,BILLIE,BANNON,4044 BISHOPSTOKE LANE,,MISSISSAUGA,ON,L4Z 1J2,22,V,3218997,BANNONBILLIE@GMAIL.COM,CA,V,,,,,,,,,,ACTIVE,UNSHIPPED
452942,7166,FRIZZ EASE® FOREVER SMOOTH,SARAH,MCBURNEY,63-3330 SOUTH MILLWAY,,MISSISSAUGA,ON,L5L 3H4,22,V,3218672,SARAHLYNNMCBURNEY@HOTMAIL.COM,CA,V,,,,,,,,,,ACTIVE,UNSHIPPED
457520,7166,FRIZZ EASE® FOREVER SMOOTH,DEANNE,FINHOLM,38 CHIPPEWA MOBILE PK,,THUNDER BAY,ON,P7J 1J6,22,V,3167878,GMGIRL1@LIVE.COM,CA,V,,,,,,,,,,ACTIVE,UNSHIPPED
452228,7166,FRIZZ EASE® FOREVER SMOOTH,NIKKI,CASTER,604-829 BIRCHMOUNT RD,,SCARBOROUGH,ON,M1K 1R9,22,V,3150829,SHYANNEJENAYA@GMAIL.COM,CA,V,,,,,,,,,,ACTIVE,UNSHIPPED
450249,7166,FRIZZ EASE® FOREVER SMOOTH,SAMANTHA,MCFADDEN,1007-3311 KINGSTON RD,,SCARBOROUGH,ON,M1M 1R1,22,V,3146859,SAMANTHA.SM97@GMAIL.COM,CA,V,,,,,,,,,,ACTIVE,UNSHIPPED
457477,7166,FRIZZ EASE® FOREVER SMOOTH,DEBBIE,WELLWOOD,69 SOUTHAMPTON DR,,FREDERICTON,NB,E3B 4T5,22,V,3020207,AQUA_11@HOTMAIL.COM,CA,V,,,,,,,,,,ACTIVE,UNSHIPPED
451308,7166,FRIZZ EASE® FOREVER SMOOTH,BREANNE,SAYERS,1851 101ST ST,,N-BATTLEFORD,SK,S9A 1A9,23,V,3217437,BREANNESAYERS@HOTMAIL.COM,CA,V,,,,,,,,,,ACTIVE,UNSHIPPED
450620,7166,FRIZZ EASE® FOREVER SMOOTH,DEBRA,ALDRICH,3390 RUE ROCHELEAU,,SAINT-HUBERT,QC,J3Y 4T7,23,V,3214031,DJAPURPLE@OUTLOOK.COM,CA,V,,,,,,,,,,ACTIVE,UNSHIPPED
451752,7166,FRIZZ EASE® FOREVER SMOOTH,KIM,CARBONNEAU,2665N RUE NOTRE-DAME,,ST-HYACINTHE,QC,J2S 2R5,23,V,3153625,PIKI_LOVE16@HOTMAIL.COM,CA,V,,,,,,,,,,ACTIVE,UNSHIPPED
457165,7166,FRIZZ EASE® FOREVER SMOOTH,ÉLAINA,ROBERT,47 119E AVE,,DRUMMONDVILLE,QC,J2B 4C3,24,V,3220489,ELAINA.ROBERT@ICLOUD.COM,CA,V,,,,,,,,,,ACTIVE,UNSHIPPED
453952,7166,FRIZZ EASE® FOREVER SMOOTH,THOMMY,BLAIS,1619 RUE PRINCIPALE,,SAINTE-URSULE,QC,J0K 3M0,24,V,3219470,MIISSQC@GMAIL.COM,CA,V,,,,,,,,,,ACTIVE,UNSHIPPED
452315,7166,FRIZZ EASE® FOREVER SMOOTH,LEANN,VARCOE,LOWER,29 GROVE AVE,ST CATHARINES,ON,L2P 1C5,24,V,3217617,LEANNVARCOE@HOTMAIL.COM,CA,V,,,,,,,,,,ACTIVE,UNSHIPPED
451599,7166,FRIZZ EASE® FOREVER SMOOTH,CHARLENE,MCMILLAN,12 WATER ST,,ST CATHARINES,ON,L2R 4T7,24,V,3087908,MAAM9983@YAHOO.COM,CA,V,,,,,,,,,,ACTIVE,UNSHIPPED
457847,7166,FRIZZ EASE® FOREVER SMOOTH,ROSE,ORR,3 HAZEL ST,,ST CATHARINES,ON,L2T 1E2,24,V,3008887,RONANDMONICA1@HOTMAIL.COM,CA,V,,,,,,,,,,ACTIVE,UNSHIPPED
